…
## Exemplo

Comércio em SH4

``` r
library(comerciobr)
library(magrittr)

comerciobr::sh4_df %>% 
  dplyr::filter(co_ano == max(co_ano)-1) %>% 
  dplyr::group_by(co_ano, path, no_pais) %>%
  dplyr::summarise(value = sum(value)) %>% 
  dplyr::arrange(desc(value))
#> `summarise()` has grouped output by 'co_ano', 'path'. You can override using the `.groups` argument.
#> # A tibble: 480 x 4
#> # Groups:   co_ano, path [2]
#>    co_ano path  no_pais                       value
#>     <int> <chr> <chr>                         <dbl>
#>  1   2020 EXP   China                   67788071101
#>  2   2020 IMP   China                   34041250902
#>  3   2020 IMP   Estados Unidos          24122448007
#>  4   2020 EXP   Estados Unidos          21481528307
#>  5   2020 IMP   Brasil                  12620789898
#>  6   2020 IMP   Alemanha                 8597645213
#>  7   2020 EXP   Argentina                8488717954
#>  8   2020 IMP   Argentina                7788098367
#>  9   2020 EXP   Países Baixos (Holanda)  7382820316
#> 10   2020 EXP   Canadá                   4229942341
#> # … with 470 more rows
```
…
